Medicare Part D 2017_analysis
…
spend_by_drug_manu

## # A tibble: 7,216 x 40
##    brand_name generic_name manufacturer total_spending total_dosage_un~
##    <chr>      <chr>        <chr>                 <dbl>            <dbl>
##  1 1st Tier ~ Pen Needle,~ Owen Mumfor~         94538.           518920
##  2 1st Tier ~ Pen Needle,~ Owen Mumfor~            NA                NA
##  3 Abacavir   Abacavir Su~ Apotex Corp        4492742.           628513
##  4 Abacavir   Abacavir Su~ Aurobindo P~       3559815.           495218
##  5 Abacavir   Abacavir Su~ Camber Phar~            NA                NA
##  6 Abacavir   Abacavir Su~ Mylan             18776294.          2624085
##  7 Abacavir-~ Abacavir Su~ Prasco Labs             NA                NA
##  8 Abacavir-~ Abacavir Su~ Teva USA                NA                NA
##  9 Abacavir-~ Abacavir/La~ Lupin Pharm~         78230.             3473
## 10 Abelcet    Amphoterici~ Sigma-Tau/L~        582003.            56574
## # ... with 7,206 more rows, and 35 more variables: total_claims <dbl>,
## #   total_beneficiaries <dbl>,
## #   average_spending_per_dosage_unit_weighted <dbl>,
## #   average_spending_per_claim <dbl>,
## #   average_spending_per_beneficiary <dbl>, total_spending_2 <dbl>,
## #   total_dosage_units_2 <dbl>, total_claims_2 <dbl>,
## #   total_beneficiaries_2 <dbl>,
## #   average_spending_per_dosage_unit_weighted_2 <dbl>,
## #   average_spending_per_claim_2 <dbl>,
…
dim(drug_use_info)

## [1] 2879    3

colnames(drug_use_info)

## [1] "brand_name"   "generic_name" "drug_uses"

drug_use_info

## # A tibble: 2,879 x 3
##    brand_name         generic_name        drug_uses                        
##    <chr>              <chr>               <chr>                            
##  1 1st Tier Unifine ~ Pen Needle, Diabet~ Drug uses not available          
##  2 1st Tier Unifine ~ Pen Needle, Diabet~ Drug uses not available          
##  3 Abacavir           Abacavir Sulfate    This drug is used with other HIV~
##  4 Abacavir-Lamivudi~ Abacavir Sulfate/L~ This product contains 2 drugs: a~
##  5 Abacavir-Lamivudi~ Abacavir/Lamivudin~ This product contains 3 drugs: a~
##  6 Abelcet            Amphotericin B Lip~ This medication is used to treat~
##  7 Abilify            Aripiprazole        Aripiprazole is used to treat ce~
##  8 Accuretic          Quinapril/Hydrochl~ "This product is used to treat h~
##  9 Acebutolol HCl     Acebutolol HCl      Acebutolol is used to treat high~
## 10 Acetamin-Caff-Dih~ Acetaminophen/Caff~ See also Warning section. This c~
## # ... with 2,869 more rows
…
  gather(key = "variable", value = "value", -c(brand_name:manufacturer)) %>% 
  # separate year attached through colnames and variable name
  separate(variable, into = c("variable", "year"), sep = "\\.") %>% 
  spread(variable, value) %>% 
  # string name cleanup:
  mutate_at(vars(brand_name:manufacturer), str_to_lower) %>%
  # some brand names have "*" mark - related to disclaimer for the drug use information indicating that the use information is a summary and 
  # does not provide all information about the product
  mutate(brand_name = str_replace(brand_name, "\\*", "")) %>% 
  # reorder rows
  arrange(brand_name, generic_name, manufacturer, year)
# result:
spend_tidy

## # A tibble: 36,080 x 11
##    brand_name generic_name manufacturer year  average_spendin~
##    <chr>      <chr>        <chr>        <chr>            <dbl>
##  1 1st tier ~ pen needle,~ owen mumfor~ 2013              58.4
##  2 1st tier ~ pen needle,~ owen mumfor~ 2014              59.1
##  3 1st tier ~ pen needle,~ owen mumfor~ 2015              58.7
##  4 1st tier ~ pen needle,~ owen mumfor~ 2016              63.1
##  5 1st tier ~ pen needle,~ owen mumfor~ 2017              72.1
##  6 1st tier ~ pen needle,~ owen mumfor~ 2013              NA  
##  7 1st tier ~ pen needle,~ owen mumfor~ 2014              42.0
##  8 1st tier ~ pen needle,~ owen mumfor~ 2015              45.5
##  9 1st tier ~ pen needle,~ owen mumfor~ 2016              58.6
## 10 1st tier ~ pen needle,~ owen mumfor~ 2017              67.4
## # ... with 36,070 more rows, and 6 more variables:
## #   average_spending_per_claim <dbl>,
## #   average_spending_per_dosage_unit_weighted <dbl>,
## #   total_beneficiaries <dbl>, total_claims <dbl>,
## #   total_dosage_units <dbl>, total_spending <dbl>
…
Im interested in the connection between drug uses and the most commonly prescribed drugs covered by Medicare Part D. Total spending could also be an intriguing variable to explore, but there are some disclaimers on the CMS.gov website regarding this dataset that raise concerns. Any data relating to cost is based on the gross drug cost, including any Medicare/insurance coverage and beneficiary payments, and CMS is prohibited from disclosing discounts/rebates by the manufacturer.

cms.gov source

Drug uses summary token analysis

drug_use_cln <- drug_use_info %>% 
  mutate_all(str_to_lower) %>% 
  # replace "*" next to some brand names - related to disclaimer by CMS that provided drug use info is only a summary
  mutate(brand_name = str_replace(brand_name, "\\*", "")) %>% 
  arrange(brand_name, generic_name)
drug_use_cln

## # A tibble: 2,879 x 3
##    brand_name         generic_name        drug_uses                        
##    <chr>              <chr>               <chr>                            
##  1 1st tier unifine ~ pen needle, diabet~ drug uses not available          
##  2 1st tier unifine ~ pen needle, diabet~ drug uses not available          
##  3 abacavir           abacavir sulfate    this drug is used with other hiv~
##  4 abacavir-lamivudi~ abacavir sulfate/l~ this product contains 2 drugs: a~
##  5 abacavir-lamivudi~ abacavir/lamivudin~ this product contains 3 drugs: a~
##  6 abelcet            amphotericin b lip~ this medication is used to treat~
##  7 abilify            aripiprazole        aripiprazole is used to treat ce~
##  8 abilify maintena   aripiprazole        extended-release aripiprazole in~
##  9 abraxane           paclitaxel protein~ this medication is used to treat~
## 10 absorica           isotretinoin        this medication is used to treat~
## # ... with 2,869 more rows
…
# many items missing a drug use are items like syringes, alcohol pads, but some are medications with no provided drug use
drug_uses_token <- drug_use_cln %>% 
  filter(drug_uses != "drug uses not available") %>% 
  # create unique drug reference key number:
  mutate(drug_num = row_number()) %>% 
  unnest_tokens(word, drug_uses) %>%
  distinct() %>% 
  # filter out common stop words
  anti_join(stop_words, by = "word")
# result:
drug_uses_token

## # A tibble: 126,699 x 4
##    brand_name generic_name     drug_num word       
##    <chr>      <chr>               <int> <chr>      
##  1 abacavir   abacavir sulfate        1 drug       
##  2 abacavir   abacavir sulfate        1 hiv        
##  3 abacavir   abacavir sulfate        1 medications
##  4 abacavir   abacavir sulfate        1 control    
##  5 abacavir   abacavir sulfate        1 infection  
##  6 abacavir   abacavir sulfate        1 helps      
##  7 abacavir   abacavir sulfate        1 decrease   
##  8 abacavir   abacavir sulfate        1 amount     
##  9 abacavir   abacavir sulfate        1 body       
## 10 abacavir   abacavir sulfate        1 immune     
## # ... with 126,689 more rows

# how often does each word appear?
token_count <- drug_uses_token %>% 
  count(word, sort = TRUE)
token_count

## # A tibble: 3,878 x 2
##    word            n
##    <chr>       <int>
##  1 advice       2626
##  2 assure       2626
##  3 care         2626
##  4 complete     2626
##  5 effective    2626
##  6 health       2626
##  7 individual   2626
##  8 information  2626
##  9 medical      2626
## 10 note         2626
## # ... with 3,868 more rows
…
  group_by(brand_name, generic_name) %>% 
  # sum total claims over the 5 years:
  summarize(sum_claims = sum(total_claims)) %>% 
  ungroup() %>% 
  # join drug number from the drug uses set 
  inner_join(
    drug_uses_token %>% 
      select(brand_name:drug_num) %>% 
      distinct(),
    by = c("brand_name", "generic_name")
    )
# result:
claims_summ

## # A tibble: 2,626 x 4
##    brand_name                 generic_name              sum_claims drug_num
##    <chr>                      <chr>                          <dbl>    <int>
##  1 abacavir                   abacavir sulfate              321012        1
##  2 abacavir-lamivudine        abacavir sulfate/lamivud~      63242        2
##  3 abacavir-lamivudine-zidov~ abacavir/lamivudine/zido~      41688        3
##  4 abelcet                    amphotericin b lipid com~       2189        4
##  5 abilify                    aripiprazole                 7495818        5
##  6 abilify maintena           aripiprazole                  415407        6
##  7 abraxane                   paclitaxel protein-bound        3816        7
##  8 absorica                   isotretinoin                     492        8
##  9 acamprosate calcium        acamprosate calcium           112882        9
## 10 acanya                     clindamycin phos/benzoyl~       3726       10
## # ... with 2,616 more rows
…
# overall, model tends to overestimate lower values of total claims and underestimate higher total claim counts
# pull out words that had non-zero coefficients in the model
by_brand_model_coef <- coef(by_brand_fin_model, by_brand_fin_model$lambda.1se) %>% 
  as.matrix() %>% 
  as.data.frame() %>% 
  rownames_to_column("word") %>% 
  as_tibble() %>% 
  rename("coef" = `1`) %>% 
  filter(coef != 0) %>% 
  mutate(abs_coef = abs(coef))
# result:
by_brand_model_coef

## # A tibble: 105 x 3
##    word            coef abs_coef
##    <chr>          <dbl>    <dbl>
##  1 (Intercept) 15.8     15.8    
##  2 infection   -0.0143   0.0143 
##  3 chance       0.584    0.584  
##  4 medication  -0.0352   0.0352 
##  5 respond     -0.734    0.734  
##  6 growth      -0.867    0.867  
##  7 mental       0.795    0.795  
##  8 combination -0.0293   0.0293 
##  9 balance      0.708    0.708  
## 10 called       0.00718  0.00718
## # ... with 95 more rows
…
  distinct() %>% 
  arrange(generic_name) %>% 
  inner_join(
    # new numbering based on generic name only (old one associated with brand/generic name combo)
    drug_token_filt %>% 
      select(generic_name) %>% 
      distinct() %>% 
      arrange(generic_name) %>% 
      mutate(drug_num = row_number()),
    by = "generic_name"
  )
# result:
generic_token

## # A tibble: 41,654 x 3
##    generic_name          word        drug_num
##    <chr>                 <chr>          <int>
##  1 0.9 % sodium chloride solution           1
##  2 0.9 % sodium chloride water              1
##  3 0.9 % sodium chloride salt               1
##  4 0.9 % sodium chloride sodium             1
##  5 0.9 % sodium chloride body               1
##  6 0.9 % sodium chloride mixed              1
##  7 0.9 % sodium chloride medications        1
##  8 0.9 % sodium chloride injection          1
##  9 0.9 % sodium chloride vein               1
## 10 abacavir sulfate      drug               2
## # ... with 41,644 more rows
…
  group_by(generic_name) %>% 
  summarise(generic_claim = sum(sum_claims)) %>% 
  ungroup() %>% 
  inner_join(
    # merge with new drug num to keep key the same
    generic_token %>%
      select(generic_name, drug_num) %>%
      distinct(), 
    by = "generic_name"
    ) %>% 
  mutate(generic_claim_log = log2(generic_claim))
# result:
generic_claims_summ

## # A tibble: 1,450 x 4
##    generic_name                   generic_claim drug_num generic_claim_log
##    <chr>                                  <dbl>    <int>             <dbl>
##  1 0.9 % sodium chloride                 967272        1              19.9
##  2 abacavir sulfate                      340892        2              18.4
##  3 abacavir sulfate/lamivudine           758812        3              19.5
##  4 abacavir/dolutegravir/lamivudi        525268        4              19.0
##  5 abacavir/lamivudine/zidovudine         73843        5              16.2
##  6 abatacept                             180531        6              17.5
##  7 abatacept/maltose                      35916        7              15.1
##  8 abiraterone acetate                   460701        8              18.8
##  9 abobotulinumtoxina                      1320        9              10.4
## 10 acamprosate calcium                   112882       10              16.8
## # ... with 1,440 more rows
…
# which words are in both?
shared_model_words <- by_brand_model_coef %>% 
  inner_join(by_generic_model_coef, by = "word", suffix = c("_brand", "_generic")) %>% 
  filter(word != "(Intercept)")
shared_model_words

## # A tibble: 71 x 5
##    word         coef_brand abs_coef_brand coef_generic abs_coef_generic
##    <chr>             <dbl>          <dbl>        <dbl>            <dbl>
##  1 infection       -0.0143         0.0143       -0.347            0.347
##  2 growth          -0.867          0.867        -0.932            0.932
##  3 mental           0.795          0.795         0.188            0.188
##  4 balance          0.708          0.708         0.890            0.890
##  5 chemotherapy    -0.339          0.339        -0.518            0.518
##  6 slowing         -0.200          0.200        -0.388            0.388
##  7 start           -0.231          0.231        -0.142            0.142
##  8 reduce           0.0453         0.0453        0.571            0.571
##  9 exercise         0.645          0.645         0.406            0.406
## 10 heart            0.710          0.710         0.730            0.730
## # ... with 61 more rows
…
